{
    "403_header": {
        "en": "Access forbidden"
    },
    "403_text": {
        "en": "You don't have the needed privileges to access this application. Please contact the administrator if you find this to be incorrect."
    }
}